{
  "welcomeFile": "/webapp/index.html",
  "routes": [
    {
      "path": "/resources",
      "target": {
        "type": "service",
        "name": "sapui5",
        "entryPath": "/resources",
        "version": "1.60.13"
      },
      "description": "SAPUI5 Resources"
    },
    {
      "path": "/test-resources",
      "target": {
        "type": "service",
        "name": "sapui5",
        "entryPath": "/test-resources",
        "version": "1.60.13"
      },
      "description": "SAPUI5 Resources"
    },
    {
      "path": "/webapp/resources",
      "target": {
        "type": "service",
        "name": "sapui5",
        "entryPath": "/resources",
        "version": "1.60.13"
      },
      "description": "SAPUI5 Resources"
    },
    {
      "path": "/webapp/test-resources",
      "target": {
        "type": "service",
        "name": "sapui5",
        "entryPath": "/test-resources",
        "version": "1.60.13"
      },
      "description": "SAPUI5 Test Resources"
    },
    {
      "path": "/NorthWind",
      "target": {
        "type": "destination",
        "name": "NorthWind"
      },
      "description": "NorthWind"
    },
    {
      "path": "/sap/opu/odata",
      "target": {
        "type": "destination",
        "name": "D18_ABAP",
        "entryPath": "/sap/opu/odata"
      },
      "description": "D18 Manessens"
    }
  ],
  "sendWelcomeFileRedirect": true
}